<svg width="22" height="27" viewBox="0 0 22 27" fill="none" xmlns="http://www.w3.org/2000/svg">
<path d="M13.4444 17.1111C13.4444 16.4363 13.2057 15.8602 12.7283 15.3828C12.2509 14.9054 11.6748 14.6667 11 14.6667C10.3252 14.6667 9.74913 14.9054 9.2717 15.3828C8.79427 15.8602 8.55556 16.4363 8.55556 17.1111C8.55556 17.5822 8.6765 18.0087 8.9184 18.3906C9.1603 18.7726 9.48495 19.0718 9.89236 19.2882L8.57465 23.6615C8.511 23.8524 8.54282 24.0307 8.67014 24.1962C8.79745 24.3617 8.96296 24.4444 9.16667 24.4444H12.8333C13.037 24.4444 13.2025 24.3617 13.3299 24.1962C13.4572 24.0307 13.489 23.8524 13.4253 23.6615L12.1076 19.2882C12.515 19.0718 12.8397 18.7726 13.0816 18.3906C13.3235 18.0087 13.4444 17.5822 13.4444 17.1111ZM6.11111 12.2222H15.8889V8.55556C15.8889 7.20602 15.4115 6.05382 14.4566 5.09896C13.5017 4.1441 12.3495 3.66667 11 3.66667C9.65046 3.66667 8.49826 4.1441 7.5434 5.09896C6.58854 6.05382 6.11111 7.20602 6.11111 8.55556V12.2222ZM22 14.0556V25.0556C22 25.5648 21.8218 25.9977 21.4653 26.3542C21.1088 26.7106 20.6759 26.8889 20.1667 26.8889H1.83333C1.32407 26.8889 0.891204 26.7106 0.534722 26.3542C0.178241 25.9977 0 25.5648 0 25.0556V14.0556C0 13.5463 0.178241 13.1134 0.534722 12.7569C0.891204 12.4005 1.32407 12.2222 1.83333 12.2222H2.44444V8.55556C2.44444 6.21296 3.28472 4.20139 4.96528 2.52083C6.64583 0.840278 8.65741 7.15256e-07 11 7.15256e-07C13.3426 7.15256e-07 15.3542 0.840278 17.0347 2.52083C18.7153 4.20139 19.5556 6.21296 19.5556 8.55556V12.2222H20.1667C20.6759 12.2222 21.1088 12.4005 21.4653 12.7569C21.8218 13.1134 22 13.5463 22 14.0556Z" fill="url(#paint0_linear)"/>
<defs>
<linearGradient id="paint0_linear" x1="11" y1="26.8889" x2="11" y2="0" gradientUnits="userSpaceOnUse">
<stop stop-color="#FDA046"/>
<stop offset="1" stop-color="#FFC42D"/>
</linearGradient>
</defs>
</svg>
